<?xml version="1.0" encoding="UTF-8" standalone="no"?>
<!-- Created with Inkscape (http://www.inkscape.org/) -->

<svg
   width="210mm"
   height="297mm"
   viewBox="0 0 210 297"
   version="1.1"
   id="svg5"
   inkscape:version="1.1 (c68e22c387, 2021-05-23)"
   sodipodi:docname="logo.svg"
   xmlns:inkscape="http://www.inkscape.org/namespaces/inkscape"
   xmlns:sodipodi="http://sodipodi.sourceforge.net/DTD/sodipodi-0.dtd"
   xmlns="http://www.w3.org/2000/svg"
   xmlns:svg="http://www.w3.org/2000/svg">
  <sodipodi:namedview
     id="namedview7"
     pagecolor="#505050"
     bordercolor="#eeeeee"
     borderopacity="1"
     inkscape:pageshadow="0"
     inkscape:pageopacity="0"
     inkscape:pagecheckerboard="0"
     inkscape:document-units="mm"
     showgrid="false"
     inkscape:zoom="0.16"
     inkscape:cx="-4753.125"
     inkscape:cy="-778.125"
     inkscape:window-width="1920"
     inkscape:window-height="1001"
     inkscape:window-x="-9"
     inkscape:window-y="-9"
     inkscape:window-maximized="1"
     inkscape:current-layer="g19919" />
  <defs
     id="defs2">
    <clipPath
       clipPathUnits="userSpaceOnUse"
       id="clipPath15080">
      <rect
         style="fill:#ffffff;fill-opacity:1;stroke:none;stroke-width:29.4754;stroke-miterlimit:4;stroke-dasharray:none;stroke-opacity:1"
         id="rect15082"
         width="167.89702"
         height="122.64049"
         x="-456.27832"
         y="-181.76704" />
    </clipPath>
    <clipPath
       clipPathUnits="userSpaceOnUse"
       id="clipPath15080-7">
      <rect
         style="fill:#ffffff;fill-opacity:1;stroke:none;stroke-width:29.4754;stroke-miterlimit:4;stroke-dasharray:none;stroke-opacity:1"
         id="rect15082-2"
         width="167.89702"
         height="122.64049"
         x="-456.27832"
         y="-181.76704" />
    </clipPath>
    <clipPath
       clipPathUnits="userSpaceOnUse"
       id="clipPath15080-1">
      <rect
         style="fill:#ffffff;fill-opacity:1;stroke:none;stroke-width:29.4754;stroke-miterlimit:4;stroke-dasharray:none;stroke-opacity:1"
         id="rect15082-0"
         width="167.89702"
         height="122.64049"
         x="-456.27832"
         y="-181.76704" />
    </clipPath>
    <clipPath
       clipPathUnits="userSpaceOnUse"
       id="clipPath15080-7-5">
      <rect
         style="fill:#ffffff;fill-opacity:1;stroke:none;stroke-width:29.4754;stroke-miterlimit:4;stroke-dasharray:none;stroke-opacity:1"
         id="rect15082-2-2"
         width="167.89702"
         height="122.64049"
         x="-456.27832"
         y="-181.76704" />
    </clipPath>
    <clipPath
       clipPathUnits="userSpaceOnUse"
       id="clipPath15080-4">
      <rect
         style="fill:#ffffff;fill-opacity:1;stroke:none;stroke-width:29.4754;stroke-miterlimit:4;stroke-dasharray:none;stroke-opacity:1"
         id="rect15082-3"
         width="167.89702"
         height="122.64049"
         x="-456.27832"
         y="-181.76704" />
    </clipPath>
    <clipPath
       clipPathUnits="userSpaceOnUse"
       id="clipPath15080-7-2">
      <rect
         style="fill:#ffffff;fill-opacity:1;stroke:none;stroke-width:29.4754;stroke-miterlimit:4;stroke-dasharray:none;stroke-opacity:1"
         id="rect15082-2-8"
         width="167.89702"
         height="122.64049"
         x="-456.27832"
         y="-181.76704" />
    </clipPath>
    <clipPath
       clipPathUnits="userSpaceOnUse"
       id="clipPath15080-7-9">
      <rect
         style="fill:#ffffff;fill-opacity:1;stroke:none;stroke-width:29.4754;stroke-miterlimit:4;stroke-dasharray:none;stroke-opacity:1"
         id="rect15082-2-21"
         width="167.89702"
         height="122.64049"
         x="-456.27832"
         y="-181.76704" />
    </clipPath>
    <clipPath
       clipPathUnits="userSpaceOnUse"
       id="clipPath15080-3">
      <rect
         style="fill:#ffffff;fill-opacity:1;stroke:none;stroke-width:29.4754;stroke-miterlimit:4;stroke-dasharray:none;stroke-opacity:1"
         id="rect15082-39"
         width="167.89702"
         height="122.64049"
         x="-456.27832"
         y="-181.76704" />
    </clipPath>
    <clipPath
       clipPathUnits="userSpaceOnUse"
       id="clipPath15080-7-24">
      <rect
         style="fill:#ffffff;fill-opacity:1;stroke:none;stroke-width:29.4754;stroke-miterlimit:4;stroke-dasharray:none;stroke-opacity:1"
         id="rect15082-2-4"
         width="167.89702"
         height="122.64049"
         x="-456.27832"
         y="-181.76704" />
    </clipPath>
  </defs>
  <g
     inkscape:groupmode="layer"
     id="layer4"
     inkscape:label="Ebene 4" />
  <g
     inkscape:label="Ebene 1"
     inkscape:groupmode="layer"
     id="layer1" />
  <g
     inkscape:groupmode="layer"
     id="layer2"
     inkscape:label="Ebene 2" />
  <g
     inkscape:groupmode="layer"
     id="layer3"
     inkscape:label="Ebene 3">
    <g
       id="g19919"
       transform="translate(-1144.3229,-135.59896)"
       inkscape:export-filename="G:\Backup G-13\Privat\Archiv\Software\pixelcode\Sijacom\src\logo-256.png"
       inkscape:export-xdpi="24.797359"
       inkscape:export-ydpi="24.797359">
      <rect
         style="fill:#c00000;fill-opacity:1;stroke:none;stroke-width:24.595;stroke-miterlimit:4;stroke-dasharray:none;stroke-opacity:1"
         id="rect18714"
         width="262.22141"
         height="262.22141"
         x="-397.70953"
         y="24.543085"
         ry="33.473808"
         inkscape:export-filename="G:\Backup G-13\Privat\Archiv\Software\pixelcode\Sijacom\src\logo.png"
         inkscape:export-xdpi="96.864685"
         inkscape:export-ydpi="96.864685" />
      <g
         id="g19119"
         transform="matrix(1.2060335,0,0,1.2060335,90.728843,-27.277797)">
        <g
           id="g19652"
           transform="rotate(8.2297046,-296.28337,151.68033)">
          <circle
             style="fill:#ffffff;fill-opacity:1;stroke:none;stroke-width:27.8092;stroke-miterlimit:4;stroke-dasharray:none;stroke-opacity:1"
             id="path14648-6"
             cx="-370.75699"
             cy="-84.523537"
             r="66.145836"
             clip-path="url(#clipPath15080)"
             transform="matrix(0.50239424,-0.70912963,-0.70912963,-0.50239424,-176.93288,-126.21426)" />
          <circle
             style="fill:#ffffff;fill-opacity:1;stroke:none;stroke-width:27.8092;stroke-miterlimit:4;stroke-dasharray:none;stroke-opacity:1"
             id="path14648-6-7"
             cx="-370.75699"
             cy="-84.523537"
             r="66.145836"
             clip-path="url(#clipPath15080-7)"
             transform="matrix(0.50239424,-0.70912963,0.70912963,0.50239424,-43.101511,-96.254571)" />
        </g>
      </g>
    </g>
  </g>
</svg>
